[
  {
    "id": 0,
    "isActive": true,
    "balance": "$3,705.55",
    "picture": "http://placehold.it/128x128",
    "age": 30,
    "accessLevel": "guest",
    "firstName": "Moses",
    "lastName": "Vasquez",
    "company": "STEELTAB",
    "email": "moses.vasquez@steeltab.us",
    "phone": "+7 (931) 549-2444",
    "address": "332 Danforth Street, Blanco, Ohio, 3073",
    "about": "Proident fugiat laboris irure dolor sint dolor ipsum ut id proident excepteur quis ad. Nostrud aliquip pariatur duis dolor est incididunt ad velit velit. Consectetur magna irure veniam dolor. Voluptate qui fugiat mollit ut reprehenderit fugiat non.",
    "registered": "01.02.2015"
  },
  {
    "id": 1,
    "isActive": true,
    "balance": "$2,628.19",
    "picture": "http://placehold.it/128x128",
    "age": 30,
    "accessLevel": "user",
    "firstName": "Burris",
    "lastName": "Ingram",
    "company": "BRAINCLIP",
    "email": "burris.ingram@brainclip.com",
    "phone": "+7 (939) 585-2637",
    "address": "543 Hart Place, Galesville, New York, 8409",
    "about": "Eu do sunt ullamco est officia nulla laborum reprehenderit. Eiusmod mollit duis ut duis. Ut veniam irure pariatur Lorem et culpa. Cillum aliqua id consectetur et reprehenderit sunt ea aliquip laboris. Elit nulla labore irure adipisicing est nostrud magna.",
    "registered": "09.04.2014"
  },
  {
    "id": 2,
    "isActive": false,
    "balance": "$1,547.18",
    "picture": "http://placehold.it/128x128",
    "age": 39,
    "accessLevel": "user",
    "firstName": "Riley",
    "lastName": "Salas",
    "company": "STROZEN",
    "email": "riley.salas@strozen.co.uk",
    "phone": "+7 (865) 431-3723",
    "address": "243 Louis Place, Aberdeen, Northern Mariana Islands, 1405",
    "about": "Voluptate do quis laboris nisi aliqua ad esse est ex excepteur magna. Enim eu ullamco in irure pariatur id duis fugiat quis exercitation aliqua. Ex culpa sunt non ullamco fugiat ex voluptate nostrud. Adipisicing adipisicing laborum et proident anim anim non aliquip ex. Velit incididunt ut irure voluptate Lorem laborum tempor fugiat enim incididunt duis velit commodo. Incididunt enim ipsum deserunt est incididunt. Officia Lorem tempor dolor ad.",
    "registered": "13.04.2017"
  },
  {
    "id": 3,
    "isActive": false,
    "balance": "$2,461.75",
    "picture": "http://placehold.it/128x128",
    "age": 29,
    "accessLevel": "user",
    "firstName": "Theresa",
    "lastName": "Huff",
    "company": "ORBIXTAR",
    "email": "theresa.huff@orbixtar.net",
    "phone": "+7 (839) 503-3333",
    "address": "737 Story Court, Ilchester, South Dakota, 7678",
    "about": "Eiusmod aliquip tempor ex elit laborum ut veniam nostrud mollit officia officia. Consequat do nisi incididunt nostrud. Laboris sint consequat consequat excepteur esse magna consectetur et pariatur. Eu et cupidatat officia nulla. Ex nulla cillum dolore culpa officia velit elit quis quis nisi ullamco magna minim. Pariatur quis anim culpa laboris velit duis voluptate ex pariatur.",
    "registered": "16.03.2014"
  },
  {
    "id": 4,
    "isActive": true,
    "balance": "$3,048.95",
    "picture": "http://placehold.it/128x128",
    "age": 27,
    "accessLevel": "guest",
    "firstName": "Meghan",
    "lastName": "Jenkins",
    "company": "SPLINX",
    "email": "meghan.jenkins@splinx.me",
    "phone": "+7 (880) 486-2888",
    "address": "359 Division Place, Bend, South Carolina, 4578",
    "about": "Non sunt enim ad eiusmod officia non proident tempor magna adipisicing nostrud et qui. Proident aliquip deserunt ullamco Lorem id proident officia tempor voluptate esse sit. Tempor cillum do do nulla consectetur eu ullamco velit reprehenderit esse dolor eiusmod. Veniam deserunt occaecat amet occaecat excepteur qui amet ipsum minim reprehenderit commodo minim anim. Velit exercitation nostrud ea occaecat ut officia eiusmod consectetur nostrud consectetur do ea consectetur mollit. Commodo enim ipsum quis irure exercitation veniam incididunt tempor nisi fugiat occaecat occaecat dolore aliquip.",
    "registered": "06.02.2014"
  },
  {
    "id": 5,
    "isActive": true,
    "balance": "$2,648.93",
    "picture": "http://placehold.it/128x128",
    "age": 35,
    "accessLevel": "admin",
    "firstName": "Celia",
    "lastName": "Small",
    "company": "SEALOUD",
    "email": "celia.small@sealoud.org",
    "phone": "+7 (991) 530-3920",
    "address": "472 Denton Place, Gardiner, Guam, 3523",
    "about": "Sit veniam ex ad veniam. Minim adipisicing tempor non veniam ipsum. Et anim aute Lorem velit consequat laborum anim eu deserunt magna. Est aute tempor commodo anim ullamco non mollit duis enim commodo enim qui. Velit dolore est ut ea in magna id irure ipsum ea aute proident mollit. Cillum laboris culpa sint eiusmod elit amet voluptate cupidatat ea magna anim occaecat.",
    "registered": "07.02.2018"
  },
  {
    "id": 6,
    "isActive": false,
    "balance": "$2,014.46",
    "picture": "http://placehold.it/128x128",
    "age": 21,
    "accessLevel": "admin",
    "firstName": "Delgado",
    "lastName": "Ross",
    "company": "DEVILTOE",
    "email": "delgado.ross@deviltoe.info",
    "phone": "+7 (912) 474-3797",
    "address": "603 Pershing Loop, Klagetoh, Pennsylvania, 5433",
    "about": "Aliqua voluptate magna reprehenderit dolor nulla laboris excepteur qui ad ullamco ex nisi ad eu. Anim laboris quis consequat enim id voluptate laborum aliqua quis ad ut nulla cillum sint. Elit laborum laboris sunt eiusmod occaecat ea amet veniam id officia ut fugiat.",
    "registered": "15.05.2017"
  },
  {
    "id": 7,
    "isActive": true,
    "balance": "$1,377.04",
    "picture": "http://placehold.it/128x128",
    "age": 31,
    "accessLevel": "guest",
    "firstName": "Diana",
    "lastName": "Gillespie",
    "company": "ATGEN",
    "email": "diana.gillespie@atgen.ca",
    "phone": "+7 (981) 511-3401",
    "address": "814 Beaumont Street, Lowell, Massachusetts, 9294",
    "about": "Excepteur tempor veniam labore fugiat non. In ea excepteur nisi commodo nulla ea. Officia excepteur eu in reprehenderit eu est in veniam tempor. Magna cupidatat fugiat dolore laboris tempor qui esse non officia. Elit voluptate ex adipisicing tempor deserunt cupidatat ad. Non culpa cupidatat occaecat est cupidatat. Excepteur nulla do enim et velit fugiat adipisicing proident excepteur id irure magna incididunt voluptate.",
    "registered": "01.08.2016"
  },
  {
    "id": 8,
    "isActive": true,
    "balance": "$1,066.79",
    "picture": "http://placehold.it/128x128",
    "age": 20,
    "accessLevel": "admin",
    "firstName": "Norris",
    "lastName": "Delaney",
    "company": "SUREPLEX",
    "email": "norris.delaney@sureplex.tv",
    "phone": "+7 (860) 532-3702",
    "address": "859 Henderson Walk, Lafferty, Oklahoma, 132",
    "about": "Laboris id Lorem sunt eiusmod aliqua. Irure sint ipsum ea enim ea ullamco cupidatat adipisicing sint commodo minim Lorem. Aliquip fugiat duis pariatur aliqua sint.",
    "registered": "06.08.2016"
  },
  {
    "id": 9,
    "isActive": false,
    "balance": "$1,055.35",
    "picture": "http://placehold.it/128x128",
    "age": 23,
    "accessLevel": "guest",
    "firstName": "Susanna",
    "lastName": "Barker",
    "company": "COMTEXT",
    "email": "susanna.barker@comtext.name",
    "phone": "+7 (952) 428-2033",
    "address": "580 Wogan Terrace, Englevale, Vermont, 8703",
    "about": "Est pariatur pariatur dolore et amet do reprehenderit ipsum. Ipsum occaecat irure proident officia aliquip consequat cupidatat et excepteur. Labore est nulla cupidatat Lorem culpa pariatur. Adipisicing quis irure qui Lorem qui consequat dolore anim. Esse deserunt reprehenderit do elit ad qui fugiat exercitation esse. Dolor commodo magna ex ut.",
    "registered": "19.05.2015"
  },
  {
    "id": 10,
    "isActive": true,
    "balance": "$1,620.56",
    "picture": "http://placehold.it/128x128",
    "age": 39,
    "accessLevel": "guest",
    "firstName": "Henrietta",
    "lastName": "Hill",
    "company": "EARGO",
    "email": "henrietta.hill@eargo.io",
    "phone": "+7 (984) 566-2866",
    "address": "975 Lafayette Avenue, Wanamie, Nebraska, 8162",
    "about": "Nulla consequat aliqua Lorem ullamco magna occaecat mollit ut. Lorem id ut mollit amet laboris esse est ipsum cupidatat dolor minim in deserunt nostrud. Ad irure eiusmod consequat proident cupidatat ut velit labore minim ut pariatur laboris. Consectetur occaecat ex consequat deserunt cillum eiusmod ullamco enim. Sit incididunt duis culpa exercitation laboris elit.",
    "registered": "21.07.2014"
  },
  {
    "id": 11,
    "isActive": true,
    "balance": "$1,767.42",
    "picture": "http://placehold.it/128x128",
    "age": 28,
    "accessLevel": "user",
    "firstName": "Nannie",
    "lastName": "Nolan",
    "company": "PLASTO",
    "email": "nannie.nolan@plasto.biz",
    "phone": "+7 (979) 416-3325",
    "address": "728 Gerald Court, Waukeenah, Connecticut, 8574",
    "about": "Officia labore labore adipisicing ullamco. Elit mollit cupidatat irure amet proident. Aliquip eu sunt Lorem dolore sit. Adipisicing amet et ex veniam qui. Enim ipsum consectetur nulla labore dolor incididunt eiusmod eu. Laborum occaecat esse nisi anim eu reprehenderit excepteur amet. Dolore ex qui ea et aliqua amet pariatur ad dolore.",
    "registered": "07.03.2014"
  },
  {
    "id": 12,
    "isActive": true,
    "balance": "$3,308.12",
    "picture": "http://placehold.it/128x128",
    "age": 36,
    "accessLevel": "user",
    "firstName": "Myers",
    "lastName": "Jarvis",
    "company": "NETAGY",
    "email": "myers.jarvis@netagy.us",
    "phone": "+7 (969) 557-3187",
    "address": "311 Lake Street, Ripley, Illinois, 6808",
    "about": "Duis non tempor fugiat cillum minim ut occaecat do aliqua aliquip exercitation sint duis. Laboris ad mollit irure ex voluptate in nulla incididunt minim magna quis et. Labore nostrud cupidatat pariatur occaecat aliqua occaecat.",
    "registered": "14.07.2016"
  },
  {
    "id": 13,
    "isActive": false,
    "balance": "$3,671.33",
    "picture": "http://placehold.it/128x128",
    "age": 23,
    "accessLevel": "user",
    "firstName": "Berta",
    "lastName": "Alvarez",
    "company": "ZILPHUR",
    "email": "berta.alvarez@zilphur.com",
    "phone": "+7 (890) 402-2429",
    "address": "755 India Street, Hoagland, Nevada, 9581",
    "about": "Veniam ut anim minim aliqua reprehenderit quis nostrud ut incididunt mollit irure excepteur duis id. Ex ut occaecat nostrud est quis veniam consectetur dolor minim tempor quis. Occaecat deserunt proident tempor sunt exercitation proident ut exercitation pariatur eu non.",
    "registered": "04.10.2014"
  },
  {
    "id": 14,
    "isActive": true,
    "balance": "$3,030.71",
    "picture": "http://placehold.it/128x128",
    "age": 23,
    "accessLevel": "user",
    "firstName": "Anastasia",
    "lastName": "Blevins",
    "company": "BULLJUICE",
    "email": "anastasia.blevins@bulljuice.co.uk",
    "phone": "+7 (856) 537-3336",
    "address": "630 Bergen Street, Broadlands, Kentucky, 751",
    "about": "Fugiat dolore velit ea ipsum. Elit laborum fugiat excepteur excepteur consectetur minim do duis proident. Elit voluptate amet ea tempor. Laborum culpa sunt dolor sint. Elit do velit reprehenderit aliquip fugiat fugiat pariatur Lorem ullamco proident. Qui commodo quis reprehenderit ex ea minim consequat irure eiusmod nulla voluptate voluptate dolor exercitation.",
    "registered": "21.12.2014"
  },
  {
    "id": 15,
    "isActive": true,
    "balance": "$3,024.97",
    "picture": "http://placehold.it/128x128",
    "age": 26,
    "accessLevel": "user",
    "firstName": "Griffith",
    "lastName": "Bradley",
    "company": "ANDERSHUN",
    "email": "griffith.bradley@andershun.net",
    "phone": "+7 (947) 551-2438",
    "address": "165 Glenmore Avenue, Newry, New Mexico, 4797",
    "about": "Do tempor fugiat ex dolore irure in sint Lorem Lorem. Ullamco duis nulla minim ut proident commodo et dolore labore. Magna tempor consequat elit veniam dolore id quis commodo dolor id voluptate tempor consequat. Sunt fugiat veniam non magna non aute ipsum ex.",
    "registered": "29.09.2015"
  },
  {
    "id": 16,
    "isActive": true,
    "balance": "$1,273.09",
    "picture": "http://placehold.it/128x128",
    "age": 29,
    "accessLevel": "admin",
    "firstName": "Garrison",
    "lastName": "Steele",
    "company": "ZILLADYNE",
    "email": "garrison.steele@zilladyne.me",
    "phone": "+7 (853) 444-3612",
    "address": "289 Ludlam Place, Tolu, North Carolina, 8030",
    "about": "Ipsum dolore exercitation officia officia cillum non sint tempor labore deserunt minim aliqua consequat proident. Dolor ut ex ex adipisicing esse incididunt in adipisicing eiusmod. Non ullamco nostrud eu est consectetur anim incididunt commodo enim. Tempor enim adipisicing laboris ut Lorem Lorem quis nisi.",
    "registered": "11.09.2016"
  },
  {
    "id": 17,
    "isActive": true,
    "balance": "$1,054.86",
    "picture": "http://placehold.it/128x128",
    "age": 25,
    "accessLevel": "admin",
    "firstName": "Matilda",
    "lastName": "Monroe",
    "company": "XERONK",
    "email": "matilda.monroe@xeronk.org",
    "phone": "+7 (936) 491-2008",
    "address": "970 Keen Court, Hartsville/Hartley, Arizona, 966",
    "about": "Lorem qui amet consequat fugiat laborum consequat. Mollit mollit fugiat laboris sint occaecat eiusmod ex. Id in laborum excepteur ea irure sit irure anim velit nostrud. Eu ullamco ullamco excepteur deserunt.",
    "registered": "10.02.2016"
  },
  {
    "id": 18,
    "isActive": true,
    "balance": "$2,408.17",
    "picture": "http://placehold.it/128x128",
    "age": 28,
    "accessLevel": "admin",
    "firstName": "Desiree",
    "lastName": "Sharp",
    "company": "EXTRO",
    "email": "desiree.sharp@extro.info",
    "phone": "+7 (982) 560-2649",
    "address": "618 Kenilworth Place, Taft, Delaware, 2560",
    "about": "Cillum id mollit aute aliquip magna proident. Cillum tempor do id sint sunt in aliquip commodo. Eu exercitation velit est consequat sit voluptate. Deserunt sit proident commodo do non. Irure est culpa exercitation laboris amet eiusmod cillum aliquip amet ut. Excepteur ipsum proident dolor incididunt culpa pariatur est ipsum ex cillum aliqua voluptate adipisicing.",
    "registered": "16.03.2016"
  },
  {
    "id": 19,
    "isActive": true,
    "balance": "$3,026.36",
    "picture": "http://placehold.it/128x128",
    "age": 32,
    "accessLevel": "admin",
    "firstName": "Woodward",
    "lastName": "Herman",
    "company": "ARCHITAX",
    "email": "woodward.herman@architax.ca",
    "phone": "+7 (942) 474-3954",
    "address": "344 Fleet Street, Whipholt, Alabama, 2957",
    "about": "Ex ea minim proident reprehenderit id commodo enim ipsum pariatur mollit velit adipisicing. Eu ad aliquip exercitation pariatur veniam labore excepteur culpa officia nostrud. Ea tempor culpa qui ea aliquip.",
    "registered": "14.06.2016"
  },
  {
    "id": 20,
    "isActive": false,
    "balance": "$3,567.32",
    "picture": "http://placehold.it/128x128",
    "age": 25,
    "accessLevel": "guest",
    "firstName": "Singleton",
    "lastName": "Francis",
    "company": "PRINTSPAN",
    "email": "singleton.francis@printspan.tv",
    "phone": "+7 (915) 437-2589",
    "address": "165 Knickerbocker Avenue, Ironton, Montana, 4900",
    "about": "Eiusmod fugiat in anim tempor Lorem mollit labore ex sunt ullamco. Aliqua mollit elit occaecat laboris aliqua anim elit excepteur aliquip duis enim adipisicing sint. Ea aliquip nisi esse ex. Duis laboris aliquip fugiat cillum occaecat ex enim cillum enim dolor id eiusmod.",
    "registered": "02.10.2016"
  },
  {
    "id": 21,
    "isActive": true,
    "balance": "$3,206.65",
    "picture": "http://placehold.it/128x128",
    "age": 32,
    "accessLevel": "admin",
    "firstName": "Bridges",
    "lastName": "Pratt",
    "company": "COMVOY",
    "email": "bridges.pratt@comvoy.name",
    "phone": "+7 (859) 445-2355",
    "address": "467 Essex Street, Kenvil, West Virginia, 1433",
    "about": "Ex dolor non elit ut dolore Lorem incididunt non Lorem. Culpa cillum sit et aliqua. Aliqua qui sint proident est ad sunt nostrud et officia incididunt sit cillum. Non tempor do minim tempor in duis Lorem incididunt sunt Lorem fugiat. Elit et ea magna deserunt enim ad labore occaecat. Aliqua cupidatat eu sint consectetur occaecat culpa eu dolor.",
    "registered": "24.10.2014"
  },
  {
    "id": 22,
    "isActive": false,
    "balance": "$1,379.94",
    "picture": "http://placehold.it/128x128",
    "age": 20,
    "accessLevel": "user",
    "firstName": "Hoffman",
    "lastName": "Richardson",
    "company": "BOILCAT",
    "email": "hoffman.richardson@boilcat.io",
    "phone": "+7 (941) 552-3121",
    "address": "634 Hemlock Street, Longbranch, Virgin Islands, 4288",
    "about": "Sunt officia magna enim excepteur et. Esse ex sint cupidatat incididunt dolore eu. Laborum nulla ipsum exercitation labore occaecat est incididunt laboris irure ut do. Qui nulla voluptate cupidatat dolore tempor culpa. Eiusmod voluptate dolor cupidatat veniam laborum commodo irure id dolore anim veniam nostrud sint. Velit deserunt qui non eiusmod enim duis fugiat ea adipisicing commodo exercitation Lorem pariatur proident. Labore ullamco enim aliqua velit ad nisi ipsum esse quis ullamco amet.",
    "registered": "18.04.2014"
  },
  {
    "id": 23,
    "isActive": true,
    "balance": "$2,907.46",
    "picture": "http://placehold.it/128x128",
    "age": 31,
    "accessLevel": "admin",
    "firstName": "Torres",
    "lastName": "Hatfield",
    "company": "VIDTO",
    "email": "torres.hatfield@vidto.biz",
    "phone": "+7 (895) 563-2499",
    "address": "452 Maple Avenue, Mathews, Rhode Island, 7405",
    "about": "Ad ad quis ea nostrud ut est. Voluptate cupidatat occaecat nostrud exercitation mollit duis ullamco sit sint occaecat exercitation. Irure fugiat nulla ea officia mollit et quis fugiat ea.",
    "registered": "23.02.2017"
  },
  {
    "id": 24,
    "isActive": false,
    "balance": "$3,190.98",
    "picture": "http://placehold.it/128x128",
    "age": 22,
    "accessLevel": "user",
    "firstName": "Castaneda",
    "lastName": "Roberts",
    "company": "INTRAWEAR",
    "email": "castaneda.roberts@intrawear.us",
    "phone": "+7 (805) 459-2773",
    "address": "660 Bennet Court, Springhill, Maine, 8810",
    "about": "Laboris cupidatat ut dolor ea nulla aliqua elit nisi voluptate. Enim velit eu dolore duis irure dolor esse eiusmod ex qui laboris ipsum in in. Exercitation id fugiat laboris eiusmod velit tempor elit exercitation nostrud officia aliquip Lorem. Ut irure duis pariatur excepteur mollit aliqua. Non cillum in tempor eiusmod culpa eu.",
    "registered": "11.05.2016"
  },
  {
    "id": 25,
    "isActive": true,
    "balance": "$1,205.25",
    "picture": "http://placehold.it/128x128",
    "age": 24,
    "accessLevel": "user",
    "firstName": "Leach",
    "lastName": "Finley",
    "company": "FURNAFIX",
    "email": "leach.finley@furnafix.com",
    "phone": "+7 (870) 559-3345",
    "address": "824 Withers Street, Canoochee, Wyoming, 6294",
    "about": "Nulla est Lorem nulla tempor. Irure dolor ad ad cupidatat deserunt. Aute minim dolor commodo ipsum. Tempor fugiat sunt ullamco labore. Excepteur anim mollit exercitation veniam nisi eu voluptate aliquip ex cillum aliqua esse. Enim tempor in incididunt culpa cupidatat cupidatat adipisicing cillum occaecat adipisicing officia incididunt. Nulla amet excepteur sint pariatur dolore cillum.",
    "registered": "17.02.2016"
  },
  {
    "id": 26,
    "isActive": false,
    "balance": "$1,753.23",
    "picture": "http://placehold.it/128x128",
    "age": 36,
    "accessLevel": "guest",
    "firstName": "Gwen",
    "lastName": "Gonzales",
    "company": "RODEMCO",
    "email": "gwen.gonzales@rodemco.co.uk",
    "phone": "+7 (964) 421-2575",
    "address": "786 Kathleen Court, Neahkahnie, Hawaii, 8427",
    "about": "Amet cupidatat deserunt reprehenderit ipsum quis ea tempor magna ut enim commodo commodo cillum. Eiusmod laborum eu culpa adipisicing eiusmod. Amet do ad non non dolor mollit officia elit id. Cillum excepteur dolor nulla sint ex reprehenderit ullamco irure est. Velit laborum consequat sint sint sint velit Lorem labore.",
    "registered": "01.10.2017"
  },
  {
    "id": 27,
    "isActive": true,
    "balance": "$2,020.42",
    "picture": "http://placehold.it/128x128",
    "age": 29,
    "accessLevel": "user",
    "firstName": "Trudy",
    "lastName": "Becker",
    "company": "PRIMORDIA",
    "email": "trudy.becker@primordia.net",
    "phone": "+7 (965) 496-2122",
    "address": "355 Christopher Avenue, Esmont, Kansas, 7679",
    "about": "Occaecat quis magna in irure tempor fugiat nisi. Ullamco cupidatat incididunt exercitation eiusmod aute in sit eu adipisicing laboris velit laboris. In ullamco dolor enim ea commodo qui. Nulla nisi eu duis aliquip proident non cillum excepteur aliquip sint pariatur quis. Commodo anim pariatur ut fugiat ad ipsum sint.",
    "registered": "28.12.2015"
  },
  {
    "id": 28,
    "isActive": true,
    "balance": "$3,489.93",
    "picture": "http://placehold.it/128x128",
    "age": 27,
    "accessLevel": "guest",
    "firstName": "Della",
    "lastName": "Burton",
    "company": "GLASSTEP",
    "email": "della.burton@glasstep.me",
    "phone": "+7 (969) 524-2186",
    "address": "643 Belmont Avenue, Dubois, Maryland, 5806",
    "about": "Ut dolor nisi laborum tempor do. Dolore est ad incididunt aliquip magna cillum ullamco qui incididunt magna irure quis ipsum do. Labore sit fugiat reprehenderit incididunt Lorem incididunt ex aute. Enim magna dolor labore magna et aute occaecat anim laboris magna enim occaecat anim sint. Aute quis aliquip est duis eu eiusmod eiusmod exercitation dolor cillum qui consectetur quis. Reprehenderit tempor anim proident dolore velit duis enim magna sit minim eiusmod commodo. Ipsum do veniam est sint.",
    "registered": "25.09.2016"
  },
  {
    "id": 29,
    "isActive": true,
    "balance": "$1,405.04",
    "picture": "http://placehold.it/128x128",
    "age": 25,
    "accessLevel": "admin",
    "firstName": "Beach",
    "lastName": "Yang",
    "company": "ZAPPIX",
    "email": "beach.yang@zappix.org",
    "phone": "+7 (853) 524-3455",
    "address": "440 Schenck Place, Jamestown, Federated States Of Micronesia, 5484",
    "about": "Anim laboris culpa nostrud dolore proident nostrud ex elit proident sunt ex tempor. Quis veniam reprehenderit dolore deserunt. Ad irure incididunt aliqua eiusmod irure sint. Laborum dolore mollit esse magna. Ad velit non culpa voluptate tempor non non do cupidatat dolor qui. Lorem sunt eiusmod in aliquip sit fugiat nisi. Occaecat excepteur dolore nostrud consequat sit magna nostrud esse minim occaecat.",
    "registered": "16.10.2017"
  },
  {
    "id": 30,
    "isActive": true,
    "balance": "$1,384.90",
    "picture": "http://placehold.it/128x128",
    "age": 30,
    "accessLevel": "admin",
    "firstName": "Blackburn",
    "lastName": "Leach",
    "company": "XUMONK",
    "email": "blackburn.leach@xumonk.info",
    "phone": "+7 (857) 511-3498",
    "address": "907 Jefferson Avenue, Rockbridge, Texas, 4138",
    "about": "Et occaecat eiusmod eiusmod ipsum nostrud sint nulla laboris elit Lorem consequat consectetur mollit veniam. Duis ipsum ut officia et amet labore cupidatat duis culpa non in laborum sunt exercitation. Reprehenderit laboris sunt elit duis ut sit. Ea occaecat ad duis do. Proident consectetur elit minim labore non consequat laboris occaecat veniam culpa sint ullamco exercitation. Sunt labore duis ad ea magna mollit nisi.",
    "registered": "01.04.2016"
  },
  {
    "id": 31,
    "isActive": false,
    "balance": "$2,989.83",
    "picture": "http://placehold.it/128x128",
    "age": 21,
    "accessLevel": "admin",
    "firstName": "Brigitte",
    "lastName": "Avila",
    "company": "APEX",
    "email": "brigitte.avila@apex.ca",
    "phone": "+7 (998) 485-2548",
    "address": "329 Cortelyou Road, Brutus, Wisconsin, 9821",
    "about": "Pariatur exercitation in enim ut nulla est. Voluptate ex consequat nisi excepteur minim aliqua. Nostrud est exercitation est cupidatat officia.",
    "registered": "06.02.2014"
  },
  {
    "id": 32,
    "isActive": false,
    "balance": "$3,540.41",
    "picture": "http://placehold.it/128x128",
    "age": 27,
    "accessLevel": "guest",
    "firstName": "Benjamin",
    "lastName": "Weiss",
    "company": "ZORK",
    "email": "benjamin.weiss@zork.tv",
    "phone": "+7 (981) 419-3940",
    "address": "103 Bragg Court, Ronco, New Jersey, 6342",
    "about": "Pariatur et magna veniam veniam proident nulla sunt sint commodo dolore esse tempor. Excepteur proident sit eu occaecat. Elit consectetur consectetur tempor elit.",
    "registered": "12.05.2014"
  },
  {
    "id": 33,
    "isActive": false,
    "balance": "$1,951.22",
    "picture": "http://placehold.it/128x128",
    "age": 34,
    "accessLevel": "user",
    "firstName": "Yvonne",
    "lastName": "Acevedo",
    "company": "EARTHMARK",
    "email": "yvonne.acevedo@earthmark.name",
    "phone": "+7 (911) 416-3962",
    "address": "794 Baycliff Terrace, Dragoon, District Of Columbia, 8211",
    "about": "Ea ea est mollit qui mollit deserunt ullamco aute sit nulla fugiat eiusmod anim amet. Aliquip consequat consectetur aute laboris ad aliqua. Duis anim do culpa laboris qui enim. Officia veniam commodo incididunt irure deserunt est consequat sunt sint.",
    "registered": "16.08.2017"
  },
  {
    "id": 34,
    "isActive": false,
    "balance": "$3,934.58",
    "picture": "http://placehold.it/128x128",
    "age": 26,
    "accessLevel": "admin",
    "firstName": "Erica",
    "lastName": "Kline",
    "company": "ROTODYNE",
    "email": "erica.kline@rotodyne.io",
    "phone": "+7 (841) 537-3429",
    "address": "707 Sapphire Street, Caln, American Samoa, 7921",
    "about": "Irure velit ullamco culpa veniam. In laboris sint incididunt sunt sunt consectetur occaecat cupidatat ut voluptate nulla exercitation do. Irure voluptate ex Lorem non in non ex irure voluptate in duis. Incididunt cillum labore qui fugiat exercitation tempor enim. Reprehenderit cupidatat nostrud dolor eu exercitation aute.",
    "registered": "10.01.2017"
  },
  {
    "id": 35,
    "isActive": true,
    "balance": "$3,544.96",
    "picture": "http://placehold.it/128x128",
    "age": 29,
    "accessLevel": "admin",
    "firstName": "Madeleine",
    "lastName": "Zimmerman",
    "company": "QUANTALIA",
    "email": "madeleine.zimmerman@quantalia.biz",
    "phone": "+7 (843) 469-2418",
    "address": "837 Garden Place, Cascades, New Hampshire, 6428",
    "about": "Incididunt ullamco exercitation excepteur ea officia magna occaecat ut deserunt in quis. Ut consequat sint esse culpa id magna adipisicing eu exercitation duis minim amet laborum. Tempor ullamco dolore sint laboris veniam esse Lorem. Quis dolor anim sit Lorem do est mollit commodo. Ex eiusmod sunt duis occaecat elit incididunt laborum deserunt ipsum mollit. Elit irure enim ex et ipsum commodo in cupidatat sunt irure ea veniam nostrud. Amet anim elit reprehenderit mollit eiusmod adipisicing amet excepteur.",
    "registered": "18.11.2017"
  },
  {
    "id": 36,
    "isActive": true,
    "balance": "$2,273.74",
    "picture": "http://placehold.it/128x128",
    "age": 28,
    "accessLevel": "user",
    "firstName": "Herrera",
    "lastName": "Blackburn",
    "company": "ZENTIA",
    "email": "herrera.blackburn@zentia.us",
    "phone": "+7 (817) 556-2711",
    "address": "771 Moffat Street, Kula, Iowa, 8179",
    "about": "In voluptate ea sit exercitation. Voluptate anim laborum ut consequat. Duis sint sint mollit ea adipisicing. Nulla aliqua elit quis quis mollit ipsum. Sunt anim elit aute veniam do ut ad. Et occaecat occaecat incididunt consectetur culpa veniam deserunt commodo non. Laborum cillum sit proident duis laborum aliqua commodo ipsum esse consequat aliquip.",
    "registered": "14.08.2016"
  },
  {
    "id": 37,
    "isActive": false,
    "balance": "$2,081.52",
    "picture": "http://placehold.it/128x128",
    "age": 32,
    "accessLevel": "admin",
    "firstName": "Harrington",
    "lastName": "Oneill",
    "company": "YURTURE",
    "email": "harrington.oneill@yurture.com",
    "phone": "+7 (972) 433-3496",
    "address": "550 Woodbine Street, Genoa, Mississippi, 1198",
    "about": "Consectetur dolor pariatur eu ex dolore fugiat Lorem proident. Irure reprehenderit veniam excepteur et ea minim sit ullamco laboris quis commodo mollit magna. Proident adipisicing est aliquip consequat est. Velit in sit adipisicing cillum eiusmod est. Velit ut fugiat veniam esse tempor laboris ea nostrud. Aliqua sunt quis sint occaecat fugiat.",
    "registered": "01.07.2017"
  },
  {
    "id": 38,
    "isActive": false,
    "balance": "$2,646.17",
    "picture": "http://placehold.it/128x128",
    "age": 38,
    "accessLevel": "user",
    "firstName": "Edna",
    "lastName": "Vance",
    "company": "GYNK",
    "email": "edna.vance@gynk.co.uk",
    "phone": "+7 (811) 554-2624",
    "address": "540 Brightwater Court, Cowiche, Puerto Rico, 632",
    "about": "Veniam voluptate ea anim ipsum veniam mollit laboris non commodo nisi pariatur tempor nulla non. Fugiat enim ipsum elit voluptate laboris ad fugiat deserunt reprehenderit ut duis. Amet ullamco ad quis proident aute. Deserunt laborum veniam eiusmod ipsum consectetur et deserunt labore ipsum veniam voluptate reprehenderit amet nisi. Sit pariatur enim magna incididunt nostrud ea deserunt consequat voluptate.",
    "registered": "17.01.2017"
  },
  {
    "id": 39,
    "isActive": false,
    "balance": "$1,196.04",
    "picture": "http://placehold.it/128x128",
    "age": 40,
    "accessLevel": "admin",
    "firstName": "Holder",
    "lastName": "Watkins",
    "company": "ACCEL",
    "email": "holder.watkins@accel.net",
    "phone": "+7 (906) 409-3827",
    "address": "451 Highland Place, Delshire, Washington, 5440",
    "about": "Fugiat id sunt aute qui et occaecat dolor est est et nulla duis. Elit pariatur labore incididunt excepteur officia consectetur commodo occaecat irure commodo do ea quis. Nulla magna est aliquip cillum voluptate adipisicing esse cupidatat dolor mollit dolor sunt dolore proident. Sunt tempor ea aliquip id veniam reprehenderit commodo eiusmod elit. Sint velit eiusmod aliqua adipisicing ex voluptate eu nisi proident.",
    "registered": "11.11.2014"
  },
  {
    "id": 40,
    "isActive": false,
    "balance": "$1,423.80",
    "picture": "http://placehold.it/128x128",
    "age": 30,
    "accessLevel": "user",
    "firstName": "Wheeler",
    "lastName": "Brown",
    "company": "ECOSYS",
    "email": "wheeler.brown@ecosys.me",
    "phone": "+7 (898) 545-2578",
    "address": "732 Nelson Street, Bethpage, Michigan, 1873",
    "about": "Enim id culpa excepteur commodo ullamco laboris est commodo reprehenderit do. Magna esse commodo reprehenderit eu reprehenderit. In reprehenderit excepteur duis aute incididunt sint commodo aliqua elit consectetur et occaecat ut.",
    "registered": "05.01.2016"
  },
  {
    "id": 41,
    "isActive": false,
    "balance": "$3,188.39",
    "picture": "http://placehold.it/128x128",
    "age": 31,
    "accessLevel": "guest",
    "firstName": "Mendoza",
    "lastName": "Pate",
    "company": "OPTICALL",
    "email": "mendoza.pate@opticall.org",
    "phone": "+7 (937) 489-2012",
    "address": "497 Kane Place, Harrison, Utah, 8678",
    "about": "Mollit nostrud elit et proident ex consequat nulla commodo elit. Sit commodo enim sint voluptate velit ipsum mollit. Est dolore minim voluptate elit eu est. Consequat sit amet laboris ut elit aliqua excepteur reprehenderit est officia Lorem velit. Ut ut labore excepteur cillum commodo laboris est consectetur est.",
    "registered": "07.05.2017"
  },
  {
    "id": 42,
    "isActive": true,
    "balance": "$3,842.74",
    "picture": "http://placehold.it/128x128",
    "age": 24,
    "accessLevel": "user",
    "firstName": "Gross",
    "lastName": "Beach",
    "company": "ELECTONIC",
    "email": "gross.beach@electonic.info",
    "phone": "+7 (847) 500-2359",
    "address": "170 Verona Place, Cornfields, Idaho, 694",
    "about": "Nisi esse nostrud et eiusmod ut nisi cupidatat eiusmod cillum Lorem eiusmod. Sit cupidatat tempor ad eiusmod reprehenderit eu culpa. Esse duis irure nulla ad ipsum nisi velit aliqua sit culpa dolore duis nisi velit.",
    "registered": "25.07.2017"
  },
  {
    "id": 43,
    "isActive": false,
    "balance": "$1,728.85",
    "picture": "http://placehold.it/128x128",
    "age": 25,
    "accessLevel": "user",
    "firstName": "Irwin",
    "lastName": "Burgess",
    "company": "SOLAREN",
    "email": "irwin.burgess@solaren.ca",
    "phone": "+7 (983) 496-3132",
    "address": "531 Dodworth Street, Elbert, Tennessee, 7575",
    "about": "Nisi veniam voluptate aliqua excepteur anim. Do amet laboris nulla reprehenderit magna est laborum occaecat do. Labore laboris ullamco laborum tempor pariatur consectetur ut non nostrud. Magna ea laborum eiusmod anim fugiat pariatur cupidatat sit consequat consequat duis officia. Reprehenderit exercitation et commodo do elit aliquip eiusmod anim qui deserunt mollit velit. Et enim mollit laborum incididunt irure anim qui occaecat aliquip sit.",
    "registered": "22.08.2016"
  },
  {
    "id": 44,
    "isActive": false,
    "balance": "$1,412.71",
    "picture": "http://placehold.it/128x128",
    "age": 33,
    "accessLevel": "admin",
    "firstName": "Reid",
    "lastName": "Fleming",
    "company": "RENOVIZE",
    "email": "reid.fleming@renovize.tv",
    "phone": "+7 (917) 411-3791",
    "address": "192 Summit Street, Stewart, North Dakota, 7659",
    "about": "Ullamco et sit culpa aute amet commodo minim. Deserunt consectetur incididunt aliqua culpa veniam nisi. Eiusmod proident esse officia velit ipsum aliquip adipisicing duis consectetur anim. Aliqua do laboris anim tempor in enim culpa incididunt proident sint mollit aliqua amet. Ullamco ex sit id non.",
    "registered": "27.02.2017"
  },
  {
    "id": 45,
    "isActive": true,
    "balance": "$3,597.81",
    "picture": "http://placehold.it/128x128",
    "age": 23,
    "accessLevel": "guest",
    "firstName": "Ruthie",
    "lastName": "Freeman",
    "company": "MANTRO",
    "email": "ruthie.freeman@mantro.name",
    "phone": "+7 (869) 436-3493",
    "address": "245 Billings Place, Walker, Arkansas, 6108",
    "about": "Qui ea exercitation pariatur do amet cillum aliqua sit proident voluptate deserunt. Reprehenderit laboris incididunt nulla voluptate nulla incididunt nisi aliqua ut. Labore voluptate sit laboris nisi occaecat laboris do esse ad nostrud consectetur in minim id. Exercitation do consectetur qui consectetur aliquip esse et labore sit labore magna quis anim aliqua.",
    "registered": "06.12.2015"
  },
  {
    "id": 46,
    "isActive": false,
    "balance": "$1,422.91",
    "picture": "http://placehold.it/128x128",
    "age": 36,
    "accessLevel": "guest",
    "firstName": "Marta",
    "lastName": "Price",
    "company": "ZEAM",
    "email": "marta.price@zeam.io",
    "phone": "+7 (953) 534-3248",
    "address": "364 Ash Street, Hessville, Virginia, 8430",
    "about": "Est consectetur tempor nulla esse aliqua elit nostrud officia reprehenderit tempor mollit. Ex eu do duis nostrud voluptate exercitation id ut sit. Irure reprehenderit ut dolor do ut cupidatat Lorem consectetur eiusmod proident ipsum occaecat.",
    "registered": "07.04.2017"
  },
  {
    "id": 47,
    "isActive": true,
    "balance": "$1,188.86",
    "picture": "http://placehold.it/128x128",
    "age": 28,
    "accessLevel": "guest",
    "firstName": "Rosanna",
    "lastName": "Deleon",
    "company": "NSPIRE",
    "email": "rosanna.deleon@nspire.biz",
    "phone": "+7 (998) 469-3136",
    "address": "737 Euclid Avenue, Caberfae, Alaska, 8071",
    "about": "In elit adipisicing commodo ut aliqua enim labore in fugiat minim mollit consequat sit laborum. Dolor sit do ex non. Anim occaecat exercitation nulla officia reprehenderit quis excepteur ut aliqua sint do. Non culpa aliquip laboris aliquip id culpa eiusmod amet ipsum occaecat ipsum adipisicing. Amet cillum laborum consectetur pariatur. Exercitation duis culpa in nulla nulla eiusmod ullamco duis. Laboris et consectetur eu culpa et fugiat fugiat exercitation minim.",
    "registered": "09.02.2015"
  },
  {
    "id": 48,
    "isActive": false,
    "balance": "$2,314.46",
    "picture": "http://placehold.it/128x128",
    "age": 24,
    "accessLevel": "user",
    "firstName": "Marisa",
    "lastName": "Christian",
    "company": "MAGNEMO",
    "email": "marisa.christian@magnemo.us",
    "phone": "+7 (964) 466-2646",
    "address": "579 Glendale Court, Sultana, Minnesota, 894",
    "about": "Aute proident enim elit enim deserunt magna excepteur est ad culpa amet dolor reprehenderit esse. Elit culpa tempor sit laboris consequat. Dolore excepteur veniam anim nulla anim officia esse aliqua occaecat ad amet. Excepteur officia cupidatat officia deserunt duis commodo aliquip eu reprehenderit sint ea laboris labore. Incididunt aute tempor magna est Lorem sint.",
    "registered": "14.10.2017"
  },
  {
    "id": 49,
    "isActive": true,
    "balance": "$2,800.01",
    "picture": "http://placehold.it/128x128",
    "age": 38,
    "accessLevel": "admin",
    "firstName": "Flowers",
    "lastName": "Ellison",
    "company": "CALLFLEX",
    "email": "flowers.ellison@callflex.com",
    "phone": "+7 (811) 472-2721",
    "address": "798 Stratford Road, Chelsea, Marshall Islands, 2341",
    "about": "Irure fugiat cillum occaecat nisi ea qui duis ex anim ea. Id officia cillum magna ea nulla eu anim incididunt anim tempor. Occaecat laboris incididunt nostrud non excepteur adipisicing duis ad ut elit consectetur in. Labore ullamco id labore in laborum duis esse. Laborum ut pariatur sit minim.",
    "registered": "25.10.2016"
  },
  {
    "id": 50,
    "isActive": false,
    "balance": "$2,509.96",
    "picture": "http://placehold.it/128x128",
    "age": 20,
    "accessLevel": "user",
    "firstName": "Marion",
    "lastName": "Koch",
    "company": "KONNECT",
    "email": "marion.koch@konnect.co.uk",
    "phone": "+7 (828) 473-3025",
    "address": "210 Cyrus Avenue, Yogaville, Georgia, 7259",
    "about": "Tempor commodo duis ad ea excepteur ea. Tempor tempor consectetur velit duis fugiat adipisicing tempor ea mollit. Culpa ut in quis do nulla non ea labore amet Lorem velit. Laboris ad ut cillum eu pariatur cillum. Duis labore fugiat culpa id adipisicing culpa voluptate exercitation voluptate aute cillum duis et. Aliquip laborum ad nisi dolore.",
    "registered": "18.04.2014"
  },
  {
    "id": 51,
    "isActive": true,
    "balance": "$3,278.24",
    "picture": "http://placehold.it/128x128",
    "age": 33,
    "accessLevel": "admin",
    "firstName": "Henson",
    "lastName": "Bernard",
    "company": "STOCKPOST",
    "email": "henson.bernard@stockpost.net",
    "phone": "+7 (818) 449-2548",
    "address": "164 Ferry Place, Deltaville, California, 7627",
    "about": "Consequat ullamco aute consequat Lorem Lorem quis labore laborum velit velit. Id aute commodo anim adipisicing irure cillum elit ut sit. Irure eu culpa do pariatur minim anim.",
    "registered": "28.04.2016"
  },
  {
    "id": 52,
    "isActive": false,
    "balance": "$1,274.34",
    "picture": "http://placehold.it/128x128",
    "age": 20,
    "accessLevel": "user",
    "firstName": "Yvette",
    "lastName": "Chang",
    "company": "MEDIOT",
    "email": "yvette.chang@mediot.me",
    "phone": "+7 (942) 492-2469",
    "address": "790 Vanderbilt Street, Umapine, Colorado, 6406",
    "about": "Eiusmod nostrud consequat commodo non consectetur laboris. Nisi laboris aliquip dolore elit mollit. Veniam ut exercitation eiusmod aliqua veniam elit do. Deserunt tempor ex quis reprehenderit excepteur eiusmod elit qui. Exercitation exercitation labore est elit ipsum ullamco veniam incididunt amet ad laborum aute. Sit ipsum ex dolore culpa in tempor est reprehenderit tempor laborum nostrud adipisicing enim consequat. Reprehenderit id anim deserunt ullamco pariatur voluptate eu magna enim.",
    "registered": "06.12.2017"
  },
  {
    "id": 53,
    "isActive": true,
    "balance": "$3,395.16",
    "picture": "http://placehold.it/128x128",
    "age": 36,
    "accessLevel": "admin",
    "firstName": "Kristie",
    "lastName": "Donaldson",
    "company": "OBONES",
    "email": "kristie.donaldson@obones.org",
    "phone": "+7 (850) 532-2479",
    "address": "807 Bogart Street, Mansfield, Oregon, 2720",
    "about": "Proident nostrud cillum anim voluptate quis sint ad deserunt ad incididunt dolor. Id et consequat esse veniam sunt exercitation ex cillum. Enim nisi et elit ullamco ad do fugiat culpa reprehenderit deserunt.",
    "registered": "30.11.2014"
  },
  {
    "id": 54,
    "isActive": false,
    "balance": "$1,451.49",
    "picture": "http://placehold.it/128x128",
    "age": 23,
    "accessLevel": "user",
    "firstName": "Susanne",
    "lastName": "Love",
    "company": "QUADEEBO",
    "email": "susanne.love@quadeebo.info",
    "phone": "+7 (888) 593-2740",
    "address": "728 Jamison Lane, Elliott, Louisiana, 7290",
    "about": "Enim veniam fugiat ad incididunt aliquip culpa cillum. Sit laboris amet labore cupidatat eu cupidatat mollit. Quis mollit culpa eu veniam sit id proident aute reprehenderit. Quis velit officia occaecat proident ipsum ea cupidatat amet aliquip sit incididunt amet tempor veniam. Est laboris nostrud nulla velit minim minim qui dolore mollit.",
    "registered": "16.09.2017"
  },
  {
    "id": 55,
    "isActive": false,
    "balance": "$2,523.95",
    "picture": "http://placehold.it/128x128",
    "age": 29,
    "accessLevel": "admin",
    "firstName": "Cain",
    "lastName": "Shelton",
    "company": "DOGNOST",
    "email": "cain.shelton@dognost.ca",
    "phone": "+7 (905) 483-3029",
    "address": "902 Provost Street, Crawfordsville, Missouri, 2417",
    "about": "Mollit voluptate aute non reprehenderit cupidatat minim do eu. Aliquip culpa cupidatat commodo sit fugiat commodo exercitation deserunt. Fugiat mollit sunt deserunt anim reprehenderit ea dolor elit. Aliquip ex proident eu consectetur et et aliquip do do dolore Lorem.",
    "registered": "14.02.2017"
  },
  {
    "id": 56,
    "isActive": true,
    "balance": "$1,826.58",
    "picture": "http://placehold.it/128x128",
    "age": 34,
    "accessLevel": "admin",
    "firstName": "Trisha",
    "lastName": "David",
    "company": "ORBIFLEX",
    "email": "trisha.david@orbiflex.tv",
    "phone": "+7 (923) 551-2115",
    "address": "335 Harman Street, Moquino, Palau, 1140",
    "about": "Aliqua ex fugiat reprehenderit quis commodo dolore ipsum officia ipsum commodo. Sit dolor ipsum duis duis labore sit adipisicing nostrud in ut aliqua do et aliquip. Nisi ullamco id ea est reprehenderit pariatur enim consequat. Ipsum est qui consectetur elit.",
    "registered": "27.03.2016"
  },
  {
    "id": 57,
    "isActive": false,
    "balance": "$2,921.05",
    "picture": "http://placehold.it/128x128",
    "age": 37,
    "accessLevel": "guest",
    "firstName": "Atkins",
    "lastName": "Blair",
    "company": "CORIANDER",
    "email": "atkins.blair@coriander.name",
    "phone": "+7 (923) 496-2750",
    "address": "765 Throop Avenue, Trinway, Indiana, 8430",
    "about": "Consectetur labore nostrud duis ullamco deserunt in ea. Ut velit culpa aliqua dolore ut. Amet et laborum cillum sit adipisicing. Ut cillum consequat ipsum ipsum quis.",
    "registered": "26.03.2017"
  },
  {
    "id": 58,
    "isActive": true,
    "balance": "$3,770.96",
    "picture": "http://placehold.it/128x128",
    "age": 20,
    "accessLevel": "guest",
    "firstName": "Eve",
    "lastName": "Harrell",
    "company": "RONELON",
    "email": "eve.harrell@ronelon.io",
    "phone": "+7 (901) 478-2274",
    "address": "865 Branton Street, Gouglersville, Ohio, 5398",
    "about": "Ipsum laboris aliquip ipsum enim aliquip officia culpa cillum consectetur. Incididunt tempor ea proident ut proident. Irure amet tempor enim ipsum quis aute reprehenderit consectetur dolore amet proident dolore.",
    "registered": "26.04.2015"
  },
  {
    "id": 59,
    "isActive": false,
    "balance": "$2,888.95",
    "picture": "http://placehold.it/128x128",
    "age": 29,
    "accessLevel": "guest",
    "firstName": "Barry",
    "lastName": "Nash",
    "company": "QUARMONY",
    "email": "barry.nash@quarmony.biz",
    "phone": "+7 (808) 492-2239",
    "address": "888 Beekman Place, Coinjock, New York, 5168",
    "about": "Duis consectetur ullamco ut duis. Do sit officia irure sunt reprehenderit fugiat fugiat. Veniam exercitation ea ipsum quis fugiat ad enim incididunt minim consequat proident enim duis. Magna labore laborum aliquip ex nisi. Sit nisi veniam duis deserunt aliqua. Esse officia occaecat est cupidatat.",
    "registered": "01.01.2014"
  },
  {
    "id": 60,
    "isActive": true,
    "balance": "$2,099.86",
    "picture": "http://placehold.it/128x128",
    "age": 23,
    "accessLevel": "guest",
    "firstName": "Hale",
    "lastName": "Compton",
    "company": "JAMNATION",
    "email": "hale.compton@jamnation.us",
    "phone": "+7 (970) 487-3216",
    "address": "414 Imlay Street, Mooresburg, Northern Mariana Islands, 441",
    "about": "Pariatur labore aute voluptate nulla tempor culpa non consequat labore veniam aliqua cillum. Eiusmod exercitation tempor anim nisi consectetur anim excepteur nostrud tempor velit eiusmod quis. Ut qui ex culpa cillum magna est qui consectetur. Sit sit dolor consectetur ex ad exercitation. Pariatur esse ullamco nulla Lorem deserunt occaecat nisi dolore ea nostrud sint. Commodo nulla reprehenderit labore consequat proident et non eu do qui aute excepteur laboris Lorem.",
    "registered": "18.01.2017"
  },
  {
    "id": 61,
    "isActive": false,
    "balance": "$3,266.99",
    "picture": "http://placehold.it/128x128",
    "age": 24,
    "accessLevel": "admin",
    "firstName": "George",
    "lastName": "Armstrong",
    "company": "ZENCO",
    "email": "george.armstrong@zenco.com",
    "phone": "+7 (873) 556-3790",
    "address": "814 Willoughby Avenue, Springville, South Dakota, 3168",
    "about": "Proident labore tempor incididunt elit irure consequat tempor ex est eiusmod ad ea do. Aliquip laboris voluptate et laborum dolore labore sit minim dolor culpa deserunt qui sit ea. Fugiat sit culpa veniam do tempor eu ullamco officia non magna veniam ex aliquip. Minim excepteur voluptate culpa quis reprehenderit exercitation eiusmod deserunt in nisi sint aliquip. Elit dolor aliqua laboris minim adipisicing tempor dolor anim pariatur est in irure fugiat.",
    "registered": "15.08.2017"
  },
  {
    "id": 62,
    "isActive": true,
    "balance": "$3,254.81",
    "picture": "http://placehold.it/128x128",
    "age": 40,
    "accessLevel": "admin",
    "firstName": "Austin",
    "lastName": "Gardner",
    "company": "SCENTY",
    "email": "austin.gardner@scenty.co.uk",
    "phone": "+7 (977) 584-2737",
    "address": "927 Minna Street, Hardyville, South Carolina, 4385",
    "about": "Eu excepteur sint adipisicing sit est. Sunt pariatur ad qui officia commodo duis officia. Veniam duis aliqua aliqua aliqua occaecat ad laboris pariatur non proident nulla et. Voluptate dolor irure consectetur irure.",
    "registered": "26.01.2015"
  },
  {
    "id": 63,
    "isActive": false,
    "balance": "$3,769.79",
    "picture": "http://placehold.it/128x128",
    "age": 32,
    "accessLevel": "admin",
    "firstName": "Nadia",
    "lastName": "Justice",
    "company": "BEZAL",
    "email": "nadia.justice@bezal.net",
    "phone": "+7 (847) 486-3606",
    "address": "831 Fuller Place, Innsbrook, Guam, 6935",
    "about": "Sint ea sit commodo adipisicing nulla nulla nisi nisi reprehenderit amet. Et excepteur nulla nulla officia sit proident reprehenderit officia consequat. Qui est nulla veniam quis sunt commodo ipsum commodo. Nostrud reprehenderit irure aute magna enim adipisicing eiusmod non quis. Pariatur laboris nulla officia dolor ea do nisi enim ad ut magna ipsum minim ipsum. Reprehenderit aute in excepteur nisi voluptate magna amet officia reprehenderit enim incididunt sit dolore nulla. Nostrud labore sunt veniam eiusmod nostrud laboris et laboris id.",
    "registered": "06.05.2017"
  },
  {
    "id": 64,
    "isActive": false,
    "balance": "$2,840.63",
    "picture": "http://placehold.it/128x128",
    "age": 26,
    "accessLevel": "guest",
    "firstName": "Concetta",
    "lastName": "Obrien",
    "company": "ASSISTIA",
    "email": "concetta.obrien@assistia.me",
    "phone": "+7 (842) 499-3665",
    "address": "817 Crooke Avenue, Dixonville, Pennsylvania, 9611",
    "about": "Consectetur eiusmod sit non nisi culpa voluptate mollit ut incididunt occaecat elit. Consectetur Lorem enim aliquip veniam ex non. Aliquip magna tempor incididunt fugiat et incididunt nulla est ea nisi esse cupidatat sunt. Aliqua sit minim cillum Lorem aliqua. Nisi ullamco eu do magna.",
    "registered": "21.12.2017"
  },
  {
    "id": 65,
    "isActive": false,
    "balance": "$1,225.71",
    "picture": "http://placehold.it/128x128",
    "age": 35,
    "accessLevel": "guest",
    "firstName": "Ashley",
    "lastName": "Osborn",
    "company": "ISOLOGIA",
    "email": "ashley.osborn@isologia.org",
    "phone": "+7 (979) 515-3954",
    "address": "309 Brigham Street, Grandview, Massachusetts, 6852",
    "about": "Consequat enim mollit laborum ipsum. Proident eu pariatur sint ut eu. Incididunt elit enim sunt dolore tempor excepteur. Sit deserunt labore aliqua pariatur ad aliquip aute consequat. Ut esse ipsum velit exercitation incididunt aliquip amet ullamco. Ipsum exercitation reprehenderit dolore adipisicing adipisicing nostrud in eiusmod proident culpa nulla nisi et. Nisi incididunt cillum irure cillum sit sit in enim.",
    "registered": "01.09.2015"
  },
  {
    "id": 66,
    "isActive": false,
    "balance": "$2,185.64",
    "picture": "http://placehold.it/128x128",
    "age": 33,
    "accessLevel": "user",
    "firstName": "Ward",
    "lastName": "Fuller",
    "company": "COMTREK",
    "email": "ward.fuller@comtrek.info",
    "phone": "+7 (854) 423-2018",
    "address": "645 Bokee Court, Ticonderoga, Oklahoma, 8872",
    "about": "Est do labore nulla ex consequat dolore tempor mollit voluptate deserunt. Ex dolor proident cupidatat quis reprehenderit incididunt excepteur. Incididunt qui aliquip sint officia dolore aliqua et. Enim ipsum laborum exercitation quis adipisicing non eiusmod. Consectetur ad nisi amet Lorem culpa laboris elit sint labore aliquip pariatur aute nulla enim.",
    "registered": "17.05.2016"
  },
  {
    "id": 67,
    "isActive": false,
    "balance": "$2,354.97",
    "picture": "http://placehold.it/128x128",
    "age": 40,
    "accessLevel": "user",
    "firstName": "Mary",
    "lastName": "Espinoza",
    "company": "TECHADE",
    "email": "mary.espinoza@techade.ca",
    "phone": "+7 (885) 557-2983",
    "address": "663 Orange Street, Orason, Vermont, 4301",
    "about": "Ea adipisicing voluptate ipsum Lorem nostrud. Ullamco id do reprehenderit exercitation exercitation irure amet eu excepteur. Pariatur in consequat aute ut. Est non sit magna ullamco. Mollit exercitation do laboris tempor eiusmod.",
    "registered": "08.05.2016"
  },
  {
    "id": 68,
    "isActive": false,
    "balance": "$1,550.71",
    "picture": "http://placehold.it/128x128",
    "age": 25,
    "accessLevel": "admin",
    "firstName": "Carlene",
    "lastName": "Alford",
    "company": "MIXERS",
    "email": "carlene.alford@mixers.tv",
    "phone": "+7 (905) 589-2809",
    "address": "704 Montieth Street, Stockdale, Nebraska, 1404",
    "about": "Eu excepteur ipsum consequat nostrud fugiat et esse. Amet non sit elit nisi et reprehenderit. Est consequat tempor commodo consequat sint id culpa et nulla incididunt adipisicing in. Eu ad officia laboris qui proident commodo ex aute culpa magna. Aliqua ipsum do ullamco ad dolore aliquip proident duis ea.",
    "registered": "15.06.2017"
  },
  {
    "id": 69,
    "isActive": true,
    "balance": "$2,630.01",
    "picture": "http://placehold.it/128x128",
    "age": 31,
    "accessLevel": "guest",
    "firstName": "Estrada",
    "lastName": "Wilkerson",
    "company": "PHARMACON",
    "email": "estrada.wilkerson@pharmacon.name",
    "phone": "+7 (809) 501-3880",
    "address": "954 Thatford Avenue, Jenkinsville, Connecticut, 3801",
    "about": "Non mollit enim in anim pariatur ad enim. Eiusmod dolore eiusmod sint magna Lorem fugiat eiusmod consequat esse proident in nulla. Voluptate nulla laborum velit quis.",
    "registered": "05.06.2017"
  },
  {
    "id": 70,
    "isActive": false,
    "balance": "$2,111.96",
    "picture": "http://placehold.it/128x128",
    "age": 39,
    "accessLevel": "user",
    "firstName": "Judith",
    "lastName": "Ayers",
    "company": "NETUR",
    "email": "judith.ayers@netur.io",
    "phone": "+7 (820) 505-2384",
    "address": "187 Franklin Street, Carrizo, Illinois, 9130",
    "about": "Culpa labore culpa culpa excepteur officia labore mollit. Incididunt aliquip eu et consequat eiusmod do cillum eiusmod veniam elit et aliqua. Commodo veniam dolore fugiat qui pariatur in ut sint occaecat et commodo. Eu labore aliqua nisi sint magna cupidatat sunt aute in. Sit et sunt esse culpa velit et minim aliquip dolor. Cillum ipsum ex ut in.",
    "registered": "24.06.2014"
  },
  {
    "id": 71,
    "isActive": false,
    "balance": "$2,950.79",
    "picture": "http://placehold.it/128x128",
    "age": 22,
    "accessLevel": "admin",
    "firstName": "Hernandez",
    "lastName": "Foster",
    "company": "EMPIRICA",
    "email": "hernandez.foster@empirica.biz",
    "phone": "+7 (882) 444-3870",
    "address": "595 Lawton Street, Ebro, Nevada, 7083",
    "about": "Excepteur esse Lorem nulla est eiusmod do sint magna dolore ad eu qui esse dolor. Nisi exercitation adipisicing pariatur quis id duis nostrud. Eiusmod dolor minim aliqua Lorem ea. Ut id do qui sint sint eiusmod ut ullamco aute aliquip.",
    "registered": "05.11.2017"
  },
  {
    "id": 72,
    "isActive": true,
    "balance": "$2,067.22",
    "picture": "http://placehold.it/128x128",
    "age": 30,
    "accessLevel": "user",
    "firstName": "Brandy",
    "lastName": "Workman",
    "company": "ENERSOL",
    "email": "brandy.workman@enersol.us",
    "phone": "+7 (896) 442-3383",
    "address": "212 Utica Avenue, Jessie, Kentucky, 1149",
    "about": "Laborum elit sunt cillum laborum ea et. Consequat fugiat sint est labore est consectetur aliquip est in ad. Tempor ipsum do sint excepteur eiusmod enim est nostrud consectetur ea. Anim culpa exercitation incididunt eu.",
    "registered": "11.02.2016"
  },
  {
    "id": 73,
    "isActive": true,
    "balance": "$3,014.13",
    "picture": "http://placehold.it/128x128",
    "age": 24,
    "accessLevel": "guest",
    "firstName": "Cardenas",
    "lastName": "Howe",
    "company": "SENSATE",
    "email": "cardenas.howe@sensate.com",
    "phone": "+7 (825) 457-3007",
    "address": "383 Strauss Street, Oneida, New Mexico, 9022",
    "about": "Non quis commodo exercitation voluptate. Ipsum consectetur in consectetur elit non velit laborum velit cupidatat. Lorem esse velit pariatur laborum ea. Ullamco ut mollit mollit labore sit minim qui Lorem nisi elit proident. Et ipsum mollit non id. Qui labore dolor proident do enim fugiat exercitation et dolore qui commodo. Voluptate commodo deserunt ut eiusmod nulla velit voluptate fugiat dolore eu culpa et aute.",
    "registered": "02.02.2015"
  },
  {
    "id": 74,
    "isActive": true,
    "balance": "$3,412.29",
    "picture": "http://placehold.it/128x128",
    "age": 28,
    "accessLevel": "admin",
    "firstName": "Hawkins",
    "lastName": "Walker",
    "company": "COWTOWN",
    "email": "hawkins.walker@cowtown.co.uk",
    "phone": "+7 (824) 578-3668",
    "address": "411 Canal Avenue, Crayne, North Carolina, 5199",
    "about": "Qui ad dolor ex ad nulla cillum ad proident elit consequat quis ea. Et proident velit nisi mollit tempor voluptate velit adipisicing culpa. Esse sit voluptate aute sint minim sint nulla nulla mollit officia do ex.",
    "registered": "08.07.2015"
  },
  {
    "id": 75,
    "isActive": false,
    "balance": "$3,018.43",
    "picture": "http://placehold.it/128x128",
    "age": 24,
    "accessLevel": "admin",
    "firstName": "Corine",
    "lastName": "Hyde",
    "company": "ISOPOP",
    "email": "corine.hyde@isopop.net",
    "phone": "+7 (908) 461-3789",
    "address": "896 Little Street, Condon, Arizona, 3476",
    "about": "Nostrud ullamco minim cillum aute. Enim labore nulla aute nostrud amet esse nulla ea non. Sunt qui magna id consectetur reprehenderit est Lorem labore aliqua. Nisi labore in id sunt cupidatat dolore velit laborum officia ullamco in. Deserunt minim elit nisi minim laboris veniam in non Lorem. Consequat cupidatat officia dolore qui aliqua incididunt ullamco veniam exercitation sint. Officia magna cupidatat in aliqua do laboris.",
    "registered": "24.02.2017"
  },
  {
    "id": 76,
    "isActive": false,
    "balance": "$2,620.54",
    "picture": "http://placehold.it/128x128",
    "age": 35,
    "accessLevel": "guest",
    "firstName": "Cleo",
    "lastName": "Petersen",
    "company": "ESSENSIA",
    "email": "cleo.petersen@essensia.me",
    "phone": "+7 (918) 530-2802",
    "address": "366 Harbor Lane, Ada, Delaware, 5299",
    "about": "Laborum fugiat pariatur Lorem dolore est quis amet commodo elit deserunt sunt ea laborum dolore. Id fugiat nisi irure commodo aliquip ad esse laborum enim nisi tempor minim aliqua. Quis aute aliquip consectetur irure cillum tempor velit sit laborum ipsum do consequat eiusmod excepteur. Proident velit cillum dolore id anim ut dolor consectetur. Excepteur ad qui incididunt fugiat ad do qui occaecat tempor consequat do duis dolore. Nulla nisi consectetur pariatur eiusmod magna irure mollit. Culpa elit mollit proident esse qui aliquip culpa exercitation quis.",
    "registered": "25.11.2016"
  },
  {
    "id": 77,
    "isActive": false,
    "balance": "$1,678.59",
    "picture": "http://placehold.it/128x128",
    "age": 26,
    "accessLevel": "guest",
    "firstName": "Iris",
    "lastName": "Morales",
    "company": "MICROLUXE",
    "email": "iris.morales@microluxe.org",
    "phone": "+7 (812) 488-2068",
    "address": "485 Cheever Place, Hanover, Alabama, 7320",
    "about": "Ea commodo sunt velit aliquip. Aliquip qui deserunt dolor ex aliqua magna. Duis reprehenderit dolor deserunt ad in sit aute ea ut nulla sit excepteur. Qui labore esse nulla laboris exercitation nisi culpa consequat velit ut. Nostrud do minim ipsum excepteur consectetur incididunt aliqua consequat commodo ullamco excepteur consequat aute. Tempor ipsum aute pariatur sint in est. Excepteur exercitation do ut sit nulla consequat deserunt.",
    "registered": "18.12.2016"
  },
  {
    "id": 78,
    "isActive": true,
    "balance": "$1,993.60",
    "picture": "http://placehold.it/128x128",
    "age": 20,
    "accessLevel": "user",
    "firstName": "Rocha",
    "lastName": "Fulton",
    "company": "TUBESYS",
    "email": "rocha.fulton@tubesys.info",
    "phone": "+7 (990) 445-3810",
    "address": "931 Ridge Boulevard, Albrightsville, Montana, 1416",
    "about": "Proident deserunt fugiat quis in ad laborum minim. Amet irure fugiat sunt ut sint mollit. Reprehenderit et minim do incididunt nisi nulla quis. Nostrud eu ipsum ea nostrud commodo ipsum sunt. Qui non dolore non ad do duis commodo ipsum aliquip qui ex id pariatur commodo.",
    "registered": "03.08.2017"
  },
  {
    "id": 79,
    "isActive": true,
    "balance": "$2,189.91",
    "picture": "http://placehold.it/128x128",
    "age": 39,
    "accessLevel": "guest",
    "firstName": "Rhodes",
    "lastName": "Perry",
    "company": "BOVIS",
    "email": "rhodes.perry@bovis.ca",
    "phone": "+7 (851) 527-3205",
    "address": "877 Will Place, Ventress, West Virginia, 7057",
    "about": "Cupidatat nulla eu do cupidatat laboris commodo labore est in enim est quis tempor duis. Reprehenderit nostrud commodo est enim ipsum pariatur. Cillum dolore ex cupidatat commodo reprehenderit incididunt adipisicing voluptate pariatur dolor sint ut aliqua.",
    "registered": "04.02.2015"
  },
  {
    "id": 80,
    "isActive": false,
    "balance": "$1,303.57",
    "picture": "http://placehold.it/128x128",
    "age": 39,
    "accessLevel": "guest",
    "firstName": "Marie",
    "lastName": "Conley",
    "company": "JOVIOLD",
    "email": "marie.conley@joviold.tv",
    "phone": "+7 (826) 401-3069",
    "address": "679 Harkness Avenue, Rutherford, Virgin Islands, 7010",
    "about": "Velit commodo excepteur minim in proident id. Dolore commodo aute laborum elit incididunt velit excepteur. Ullamco pariatur consectetur fugiat ipsum cillum commodo proident incididunt aliqua. Incididunt enim fugiat aute ipsum. Ipsum sint officia duis ea exercitation ad veniam pariatur aliquip occaecat nulla sint non. Do irure qui cillum excepteur duis irure cillum dolore dolor anim laborum culpa eiusmod consequat. Ut est laboris nulla aute cupidatat sint aute aliqua officia fugiat culpa fugiat.",
    "registered": "28.07.2016"
  },
  {
    "id": 81,
    "isActive": false,
    "balance": "$2,042.78",
    "picture": "http://placehold.it/128x128",
    "age": 29,
    "accessLevel": "user",
    "firstName": "Leon",
    "lastName": "Berger",
    "company": "PEARLESEX",
    "email": "leon.berger@pearlesex.name",
    "phone": "+7 (996) 506-3578",
    "address": "717 Alton Place, Roland, Rhode Island, 5765",
    "about": "Exercitation amet consectetur Lorem consectetur officia ipsum. Exercitation labore ut elit irure aliquip commodo. Do fugiat minim enim duis qui pariatur aute ullamco eiusmod nulla sunt. Ea est esse ipsum deserunt fugiat cillum id eu voluptate pariatur qui aliqua. Laboris laboris aliquip nostrud et aliqua dolor commodo velit dolor sunt do ut. Mollit ipsum non aliquip labore eu. Mollit veniam esse aliqua in eu sint.",
    "registered": "23.07.2016"
  },
  {
    "id": 82,
    "isActive": true,
    "balance": "$1,753.54",
    "picture": "http://placehold.it/128x128",
    "age": 38,
    "accessLevel": "user",
    "firstName": "Tabatha",
    "lastName": "Snow",
    "company": "UNIA",
    "email": "tabatha.snow@unia.io",
    "phone": "+7 (978) 511-3554",
    "address": "817 Preston Court, Adelino, Maine, 8503",
    "about": "Est laboris consectetur officia aliquip nisi eiusmod. Proident nostrud et elit eiusmod consequat ea laborum id exercitation sit non irure. Esse quis amet consectetur nisi cupidatat dolore dolor cillum. Ex laboris excepteur esse laborum enim. Proident do voluptate deserunt eiusmod ullamco irure ut enim non consequat mollit. Veniam exercitation proident ipsum adipisicing eu Lorem.",
    "registered": "01.10.2017"
  },
  {
    "id": 83,
    "isActive": false,
    "balance": "$2,678.53",
    "picture": "http://placehold.it/128x128",
    "age": 20,
    "accessLevel": "guest",
    "firstName": "Meyer",
    "lastName": "Bartlett",
    "company": "CAXT",
    "email": "meyer.bartlett@caxt.biz",
    "phone": "+7 (925) 419-3601",
    "address": "802 Caton Place, Blackgum, Wyoming, 9194",
    "about": "Amet irure ullamco consectetur veniam irure aliqua do fugiat Lorem consequat aliqua. Incididunt labore sint minim ut Lorem eu excepteur culpa. Pariatur veniam nostrud eu adipisicing minim dolore et anim proident elit occaecat. Laboris dolor aute tempor id do sit culpa ea Lorem reprehenderit minim do excepteur. Aliqua sunt veniam sint adipisicing. Pariatur consequat sint consectetur id duis mollit nisi sint aliquip.",
    "registered": "11.05.2017"
  },
  {
    "id": 84,
    "isActive": true,
    "balance": "$3,607.35",
    "picture": "http://placehold.it/128x128",
    "age": 30,
    "accessLevel": "guest",
    "firstName": "Deborah",
    "lastName": "Day",
    "company": "OPTIQUE",
    "email": "deborah.day@optique.us",
    "phone": "+7 (950) 468-3939",
    "address": "676 Montgomery Place, Greenfields, Hawaii, 929",
    "about": "Cillum labore id sunt veniam velit sit incididunt exercitation proident. Nisi consectetur id velit laboris reprehenderit ea proident laboris velit sit non. Commodo duis cillum qui deserunt enim. In elit ea aliquip minim do irure adipisicing labore. Ullamco dolor sit officia fugiat minim. Tempor exercitation excepteur velit cupidatat est anim eiusmod ullamco ex labore ipsum reprehenderit labore consequat.",
    "registered": "08.08.2016"
  },
  {
    "id": 85,
    "isActive": true,
    "balance": "$1,010.48",
    "picture": "http://placehold.it/128x128",
    "age": 21,
    "accessLevel": "guest",
    "firstName": "Chapman",
    "lastName": "Massey",
    "company": "ZILLACOM",
    "email": "chapman.massey@zillacom.com",
    "phone": "+7 (866) 458-3258",
    "address": "972 Lyme Avenue, Kerby, Kansas, 5032",
    "about": "Id elit ullamco et irure. Ad ex consequat deserunt cillum veniam excepteur. Incididunt occaecat et minim duis non exercitation ipsum id et.",
    "registered": "11.10.2014"
  },
  {
    "id": 86,
    "isActive": true,
    "balance": "$3,576.18",
    "picture": "http://placehold.it/128x128",
    "age": 31,
    "accessLevel": "user",
    "firstName": "Elsie",
    "lastName": "Lewis",
    "company": "PARLEYNET",
    "email": "elsie.lewis@parleynet.co.uk",
    "phone": "+7 (902) 519-2396",
    "address": "265 Bliss Terrace, Defiance, Maryland, 9980",
    "about": "Eu minim sint do excepteur aute. Reprehenderit in non sint minim amet sint tempor incididunt deserunt laboris. Proident in amet nisi occaecat laborum officia ad cupidatat tempor ipsum.",
    "registered": "03.11.2014"
  },
  {
    "id": 87,
    "isActive": true,
    "balance": "$3,722.49",
    "picture": "http://placehold.it/128x128",
    "age": 35,
    "accessLevel": "guest",
    "firstName": "Gonzalez",
    "lastName": "Barry",
    "company": "ROCKYARD",
    "email": "gonzalez.barry@rockyard.net",
    "phone": "+7 (825) 596-2303",
    "address": "111 Russell Street, Harleigh, Federated States Of Micronesia, 3760",
    "about": "Non velit labore laborum proident eiusmod. Est cupidatat culpa aute anim occaecat cupidatat occaecat. Do cillum aute non aute voluptate tempor nulla consectetur duis. Sint in aliqua consequat esse labore duis elit Lorem commodo anim est sunt non anim. Occaecat excepteur eiusmod mollit labore. Proident anim proident Lorem est aute sint est aliquip deserunt dolore enim esse reprehenderit officia.",
    "registered": "31.07.2017"
  },
  {
    "id": 88,
    "isActive": false,
    "balance": "$1,283.14",
    "picture": "http://placehold.it/128x128",
    "age": 31,
    "accessLevel": "guest",
    "firstName": "Tracey",
    "lastName": "Leblanc",
    "company": "EXOSIS",
    "email": "tracey.leblanc@exosis.me",
    "phone": "+7 (807) 417-2881",
    "address": "598 Bergen Court, Wright, Texas, 2538",
    "about": "Commodo commodo enim magna nulla aliquip ea eu non laboris velit minim dolor. Minim exercitation deserunt cillum occaecat sint nostrud commodo duis ut occaecat duis. Irure velit laboris quis nisi quis tempor elit reprehenderit eiusmod eiusmod aliqua et laborum. Nisi ex deserunt magna nisi cillum consequat dolor aute amet non sint excepteur proident. Qui laboris reprehenderit non consequat laborum. Aute fugiat eu officia do sint ea.",
    "registered": "28.12.2014"
  },
  {
    "id": 89,
    "isActive": false,
    "balance": "$3,562.10",
    "picture": "http://placehold.it/128x128",
    "age": 31,
    "accessLevel": "user",
    "firstName": "Alison",
    "lastName": "Chandler",
    "company": "DIGITALUS",
    "email": "alison.chandler@digitalus.org",
    "phone": "+7 (850) 558-2662",
    "address": "373 Bergen Avenue, Snowville, Wisconsin, 6237",
    "about": "Elit eu anim eiusmod irure adipisicing. Duis magna aliquip dolor eu proident cillum magna. Reprehenderit nisi est ut Lorem labore. Nostrud nisi dolor laborum culpa ipsum deserunt quis incididunt in amet. Voluptate nulla velit id ad velit nisi irure eiusmod pariatur laboris fugiat velit exercitation.",
    "registered": "15.05.2015"
  },
  {
    "id": 90,
    "isActive": true,
    "balance": "$2,653.66",
    "picture": "http://placehold.it/128x128",
    "age": 30,
    "accessLevel": "user",
    "firstName": "Lou",
    "lastName": "Richmond",
    "company": "GAPTEC",
    "email": "lou.richmond@gaptec.info",
    "phone": "+7 (813) 480-3995",
    "address": "239 Cove Lane, Bedias, New Jersey, 3759",
    "about": "Exercitation fugiat commodo ipsum laboris incididunt qui laborum anim velit in dolor sint amet velit. Minim minim et ipsum dolor. Sint consequat in qui cupidatat laborum ea qui ipsum. Ea elit ex Lorem irure consectetur adipisicing dolor pariatur magna esse nostrud enim. Excepteur voluptate do nostrud laborum commodo voluptate ad exercitation. Incididunt id pariatur do non magna magna occaecat minim deserunt velit id pariatur officia.",
    "registered": "14.07.2014"
  },
  {
    "id": 91,
    "isActive": false,
    "balance": "$2,762.88",
    "picture": "http://placehold.it/128x128",
    "age": 33,
    "accessLevel": "admin",
    "firstName": "Melanie",
    "lastName": "Mcfadden",
    "company": "ECLIPTO",
    "email": "melanie.mcfadden@eclipto.ca",
    "phone": "+7 (969) 409-2719",
    "address": "443 Bevy Court, Kennedyville, District Of Columbia, 3467",
    "about": "Voluptate esse anim duis in aliqua voluptate aute laboris nulla Lorem fugiat amet. Magna mollit consequat fugiat nostrud ut aliqua. Ipsum labore culpa sint proident. Quis eiusmod ex commodo officia proident aute enim reprehenderit occaecat pariatur tempor quis pariatur. Ut eu sit ut elit laborum aute elit nostrud.",
    "registered": "14.09.2015"
  },
  {
    "id": 92,
    "isActive": true,
    "balance": "$2,712.08",
    "picture": "http://placehold.it/128x128",
    "age": 25,
    "accessLevel": "guest",
    "firstName": "Kristy",
    "lastName": "Richard",
    "company": "ECRATER",
    "email": "kristy.richard@ecrater.tv",
    "phone": "+7 (844) 543-2636",
    "address": "768 Sullivan Street, Lloyd, American Samoa, 3743",
    "about": "Ad non fugiat cupidatat sint minim officia ex. Voluptate enim ipsum Lorem in magna irure reprehenderit aliquip. Occaecat fugiat elit labore aliqua velit ut. Deserunt fugiat sit sunt esse cupidatat qui velit mollit cupidatat ullamco. Dolor tempor cupidatat qui est aliquip officia consequat veniam ullamco id. Elit aliqua non dolor id velit eu nostrud excepteur sit in magna. Incididunt tempor aute ad duis mollit quis dolor sint labore eu.",
    "registered": "19.07.2015"
  },
  {
    "id": 93,
    "isActive": false,
    "balance": "$1,848.26",
    "picture": "http://placehold.it/128x128",
    "age": 34,
    "accessLevel": "user",
    "firstName": "Marci",
    "lastName": "Pitts",
    "company": "EMTRAK",
    "email": "marci.pitts@emtrak.name",
    "phone": "+7 (878) 407-2681",
    "address": "129 Luquer Street, Malott, New Hampshire, 6952",
    "about": "Cupidatat veniam tempor ea cillum reprehenderit. Ea in eu nulla laborum do quis fugiat est fugiat irure elit nisi exercitation velit. Amet est sit minim aliquip sint proident elit laborum non Lorem commodo. Aute commodo Lorem ipsum pariatur labore nulla minim excepteur consectetur cillum sint cupidatat. Laborum labore deserunt ipsum cillum exercitation reprehenderit ex esse.",
    "registered": "03.06.2015"
  },
  {
    "id": 94,
    "isActive": false,
    "balance": "$1,781.92",
    "picture": "http://placehold.it/128x128",
    "age": 33,
    "accessLevel": "user",
    "firstName": "Pam",
    "lastName": "Frederick",
    "company": "QUONATA",
    "email": "pam.frederick@quonata.io",
    "phone": "+7 (908) 585-3785",
    "address": "576 Oliver Street, Wauhillau, Iowa, 4607",
    "about": "Quis labore est Lorem occaecat cillum duis nulla. Do adipisicing sit ipsum non eu consectetur id non ex ullamco minim officia est nisi. Officia velit dolor proident ea sit enim.",
    "registered": "03.12.2017"
  },
  {
    "id": 95,
    "isActive": true,
    "balance": "$1,505.15",
    "picture": "http://placehold.it/128x128",
    "age": 21,
    "accessLevel": "admin",
    "firstName": "Willa",
    "lastName": "Mcpherson",
    "company": "APPLICA",
    "email": "willa.mcpherson@applica.biz",
    "phone": "+7 (910) 462-2569",
    "address": "695 Broadway , Coalmont, Mississippi, 5881",
    "about": "Reprehenderit ut irure amet ipsum adipisicing esse. Non pariatur duis elit sunt. Reprehenderit cupidatat adipisicing officia id velit ipsum reprehenderit.",
    "registered": "26.02.2018"
  },
  {
    "id": 96,
    "isActive": true,
    "balance": "$2,273.52",
    "picture": "http://placehold.it/128x128",
    "age": 21,
    "accessLevel": "guest",
    "firstName": "Francesca",
    "lastName": "Drake",
    "company": "EXOZENT",
    "email": "francesca.drake@exozent.us",
    "phone": "+7 (982) 564-3788",
    "address": "713 Allen Avenue, Robinson, Puerto Rico, 8511",
    "about": "Reprehenderit enim ullamco cupidatat officia aute elit sunt eu culpa dolore minim. Nisi non aliquip tempor do adipisicing. Aliquip nostrud ipsum dolore reprehenderit aliqua id. Exercitation consequat culpa deserunt ut deserunt consectetur nostrud.",
    "registered": "02.11.2014"
  },
  {
    "id": 97,
    "isActive": true,
    "balance": "$1,372.55",
    "picture": "http://placehold.it/128x128",
    "age": 26,
    "accessLevel": "guest",
    "firstName": "Jeanne",
    "lastName": "Bond",
    "company": "ENDIPIN",
    "email": "jeanne.bond@endipin.com",
    "phone": "+7 (848) 405-3477",
    "address": "157 Haring Street, Wheatfields, Washington, 3316",
    "about": "Consectetur do nostrud amet et voluptate eu. Tempor nisi aute commodo elit velit qui deserunt consequat commodo eu adipisicing. Elit cupidatat id ullamco consequat ea ad anim veniam excepteur. Ex pariatur aliquip id quis sunt aliquip ut ad. Non duis sunt ad duis dolor nulla mollit. Consectetur quis labore aliqua ex ut ea dolor duis excepteur irure nostrud pariatur cupidatat.",
    "registered": "10.12.2017"
  },
  {
    "id": 98,
    "isActive": false,
    "balance": "$2,571.35",
    "picture": "http://placehold.it/128x128",
    "age": 39,
    "accessLevel": "admin",
    "firstName": "Patrice",
    "lastName": "Buckner",
    "company": "ARTWORLDS",
    "email": "patrice.buckner@artworlds.co.uk",
    "phone": "+7 (886) 524-2546",
    "address": "251 Cadman Plaza, Riner, Michigan, 6515",
    "about": "Excepteur voluptate ad excepteur incididunt do reprehenderit enim et Lorem ipsum non nostrud. Consequat eu sint veniam id ullamco ea Lorem laborum incididunt mollit cillum ipsum aliqua. Do aliqua quis anim occaecat. Labore anim labore Lorem laboris cillum do nisi quis. Commodo dolore incididunt id non fugiat aute pariatur consectetur non.",
    "registered": "20.04.2014"
  },
  {
    "id": 99,
    "isActive": false,
    "balance": "$2,011.63",
    "picture": "http://placehold.it/128x128",
    "age": 38,
    "accessLevel": "admin",
    "firstName": "Christina",
    "lastName": "Sparks",
    "company": "ENQUILITY",
    "email": "christina.sparks@enquility.net",
    "phone": "+7 (901) 543-3392",
    "address": "860 Stuyvesant Avenue, Waterford, Utah, 7591",
    "about": "Labore officia incididunt reprehenderit fugiat aute deserunt. Incididunt ut fugiat culpa laborum velit ut officia et adipisicing ea ex laboris. Pariatur dolore proident consequat ad reprehenderit anim adipisicing labore id in. Exercitation dolor qui deserunt deserunt elit esse nostrud sint duis. Commodo veniam pariatur ipsum qui adipisicing aute id fugiat proident duis excepteur. Est sint aliquip tempor anim non deserunt sit esse proident duis.",
    "registered": "13.09.2015"
  }
]